<?xml version="1.0" encoding="utf-8"?>
<!-- Generator: Adobe Illustrator 16.0.0, SVG Export Plug-In . SVG Version: 6.00 Build 0)  -->
<!DOCTYPE svg PUBLIC "-//W3C//DTD SVG 1.1//EN" "http://www.w3.org/Graphics/SVG/1.1/DTD/svg11.dtd">
<svg version="1.1" id="Layer_1" xmlns="http://www.w3.org/2000/svg" xmlns:xlink="http://www.w3.org/1999/xlink" x="0px" y="0px"
	 width="203.676px" height="81.5px" viewBox="0 0 203.676 81.5" enable-background="new 0 0 203.676 81.5" xml:space="preserve">
<g>
	<g>
		<path fill="#FFCE00" d="M126.505,58.842c-0.399-0.026-0.796-0.047-1.202-0.063c-0.007-0.004-2.015-0.07-3.074-0.045
			c-8.557,0.176-16.311,2.606-22.212,6.412c-0.381,0.244-0.847,0.197-1.051,0.115c-0.954-0.363-5.461-2.064-5.602-2.119
			c-0.163-0.063-0.536-0.116-0.222-0.527c0.708-0.934,1.959-1.617,2.955-2.189c1.68-0.965,3.655-1.737,5.481-2.361
			c-0.505,0.045-0.737,0.052-1.063,0.086c-0.873,0.096-1.742,0.232-2.601,0.41c-2.693,0.564-5.559,1.418-7.938,2.828
			c-0.39,0.23-0.905,0.037-0.905,0.037l-3.435-1.238c0,0-0.574-0.172,0.032-0.498c3.904-2.115,8.495-3.582,13.461-4.314
			c0.578-0.084,1.161-0.161,1.751-0.227c-0.485-0.031-1.582-0.096-1.654-0.096c-0.845-0.027-1.691-0.034-2.549-0.018
			c-7.469,0.157-14.335,2.012-19.879,5.031c-0.224,0.127-0.245,0.436-0.066,0.506c2.473,1.148,23.92,11.063,23.948,11.072
			c0.244,0.117,0.561-0.018,0.708-0.217c4.287-5.614,11.583-9.934,20.372-11.822C123.3,59.271,124.886,59.02,126.505,58.842z"/>
	</g>
	<path fill="#FFFFFF" d="M55.175,12.796l0.009,40.827l-2.069,0.957v3.626l11.563-4.632V42.885l-3.168,1.074l-0.001,7.238
		l-2.221,0.789l-0.005-18.873l3.987-0.004v-4.065l-3.938-0.003V14.457l2.156,0.762v4.454l2.754,0.709l-0.002-7.665l-11.132-4.5
		l0.001,3.638L55.175,12.796z M100.461,44.357c0-1.75-0.004-7.457-0.004-9.213c-0.018-2.111-1.269-2.588-1.269-2.588
		c0.538-0.4,1.239-1.043,1.243-2.075c0-1.163-0.004-6.272-0.004-9.05c-0.077-1.051-0.282-3.104-3.479-3.391
		c-1.051-0.121-7.457-0.451-7.457-0.451v3.234l1.669,0.127l-0.008,24.527l-1.233,0.089l0.007,3.229l6.02-0.348l-0.005-3.217
		l-1.303,0.049V34.275c0-0.002,2.549,0,2.549,0l0.002,10.395c0.086,2.439,0.224,3.827,4.26,3.688c0,0,0.002-3.205,0-3.21
		C100.471,45.14,100.461,44.357,100.461,44.357z M94.677,30.275v-9.128l2.297,0.084l0.003,9.044H94.677z M148.551,16.555
		l-0.014-8.332l-12.14,4.816l-0.002,7.917l2.455-0.839v-4.459l1.754-0.593l0.002,36.296l-1.628-0.551l-0.004,3.41l6.751,2.625
		v-3.535l-1.462-0.596l-0.011-38.995l1.752-0.722l-0.003,4.576L148.551,16.555z M77.779,19.333v-3.281l-5.567-1.156l-0.001,3.32
		l1.022,0.226c0,0-1.38,17.216-1.371,17.207c-0.086,0.039-1.818-17.943-1.818-17.943l1.147,0.278v-3.331l-5.882-1.602v3.388
		l1.015,0.288l3.848,35.295l3.272-0.779l3.23-32.109L77.779,19.333z M136.256,35.475c-0.685-1.861-4.94-7.646-5.837-10.164
		c-0.111-0.306-0.104-0.576-0.104-0.771c0-1.228,0-6.516,0-6.516l2.063-0.51v4.736l2.786-0.922c0,0,0-4.359,0-6.93
		c0-0.608-0.568-1.044-1.131-0.92c-1.618,0.359-4.949,1.351-6.149,1.782c-0.606,0.216-1.232,0.97-1.232,1.65
		c0,1.935,0.003,6.655,0.003,8.577c0,0.321,0.029,0.689,0.21,1.112c0.957,2.231,5.087,8.159,5.784,9.953
		c0.038,0.101,0.083,0.45,0.083,0.591c0,2.145,0,11.862,0,11.862l-1.981-0.487l0.001-5.246l-3.016-0.666c0,0-0.003,5.32,0.003,7.316
		c0,0.76,0.59,1.33,0.906,1.426c1.428,0.421,5.009,1.351,6.251,1.608c0.634,0.134,1.453-0.349,1.453-1.11
		c0-1.607-0.006-13.106-0.006-15.688C136.344,36.025,136.305,35.617,136.256,35.475z M149.53,55.832
		c-0.319-0.318-0.706-0.475-1.16-0.475c-0.45,0-0.833,0.156-1.153,0.475c-0.322,0.32-0.478,0.706-0.478,1.154
		c0,0.457,0.155,0.846,0.474,1.166c0.318,0.317,0.706,0.479,1.157,0.479c0.454,0,0.841-0.161,1.16-0.479
		c0.317-0.321,0.48-0.709,0.48-1.166C150.011,56.538,149.848,56.148,149.53,55.832z M149.366,57.996
		c-0.27,0.273-0.604,0.412-0.996,0.412c-0.389,0-0.722-0.139-0.995-0.412c-0.272-0.273-0.408-0.612-0.408-1.007
		c0-0.39,0.136-0.72,0.411-0.998c0.272-0.273,0.607-0.413,0.992-0.413c0.391,0,0.724,0.14,0.996,0.413
		c0.274,0.278,0.41,0.608,0.41,0.998C149.776,57.384,149.641,57.723,149.366,57.996z M149.084,57.77
		c-0.005-0.047-0.005-0.092-0.005-0.137v-0.131c0-0.093-0.031-0.184-0.098-0.279c-0.066-0.094-0.167-0.154-0.308-0.178
		c0.111-0.014,0.198-0.045,0.259-0.087c0.118-0.073,0.181-0.192,0.181-0.354c0-0.227-0.096-0.377-0.282-0.455
		c-0.106-0.043-0.268-0.066-0.491-0.066h-0.631v1.801h0.321v-0.705h0.246c0.166,0,0.282,0.018,0.353,0.059
		c0.111,0.064,0.17,0.202,0.17,0.408v0.145l0.003,0.055c0.001,0.006,0.001,0.02,0.003,0.024c0,0.004,0.007,0.01,0.01,0.015h0.302
		l-0.013-0.02C149.093,57.844,149.088,57.816,149.084,57.77z M148.613,56.914c-0.067,0.026-0.168,0.038-0.3,0.038h-0.283v-0.649
		h0.268c0.174,0,0.304,0.021,0.383,0.064c0.079,0.044,0.118,0.133,0.118,0.268C148.799,56.771,148.736,56.865,148.613,56.914z
		 M85.913,45.945l-2.006,0.232l-0.003-12.696h3.274l-0.002-3.577l-3.27,0.004v-9.658l1.884,0.221l0.002,3.79l2.501,0.259
		l-0.003-7.033l-9.403-1.24v3.273l1.248,0.201v26.986l-1.666,0.265v3.277l10.349-1.362v-8.974L85.92,40.2L85.913,45.945z
		 M120.444,49.81l6.155,1.095l0.002-3.298l-1.158-0.226l-3.985-30.917l-3.032,0.444l-3.575,28.942l-1.215-0.112l0.002,3.229
		l5.817,0.699v-3.265l-0.961-0.128l0.351-4.3l2.304,0.315l0.348,4.412l-1.052-0.162V49.81z M119.16,38.285l0.846-9.179
		c-0.005,0,0.928,9.417,0.928,9.417L119.16,38.285z M102.514,45.155v3.219l9.978,0.491v-9.492l-2.942-0.16l-0.005,6.203
		l-2.148-0.119l-0.004-24.169l1.512-0.074l0.002-3.228l-6.688,0.234v3.216l1.535-0.024l-0.009,23.921L102.514,45.155z"/>
</g>
</svg>
