<?xml version="1.0" encoding="utf-8"?>
<!-- Generator: Adobe Illustrator 16.0.0, SVG Export Plug-In . SVG Version: 6.00 Build 0)  -->
<!DOCTYPE svg PUBLIC "-//W3C//DTD SVG 1.1//EN" "http://www.w3.org/Graphics/SVG/1.1/DTD/svg11.dtd">
<svg version="1.1" id="Layer_1" xmlns="http://www.w3.org/2000/svg" xmlns:xlink="http://www.w3.org/1999/xlink" x="0px" y="0px"
	 width="40px" height="40px" viewBox="-4 -4 40 40" enable-background="new -4 -4 40 40" xml:space="preserve">
<g>
	<g>
		<g>
			<path fill="#CCCCCC" d="M18.963-3.63H-3.259C-3.668-3.63-4-3.298-4-2.889v22.222c0,0.41,0.332,0.742,0.741,0.742h22.223
				c0.409,0,0.739-0.332,0.739-0.742V-2.889C19.703-3.298,19.371-3.63,18.963-3.63z M-2.519,18.593V-2.148h20.74v20.741H-2.519
				L-2.519,18.593z"/>
			<path fill="#CCCCCC" d="M35.259-3.63h-8.888c-0.41,0-0.742,0.332-0.742,0.741V6c0,0.409,0.332,0.741,0.742,0.741h8.888
				C35.668,6.741,36,6.409,36,6v-8.889C36-3.298,35.668-3.63,35.259-3.63z M34.518,5.259h-7.406v-7.407h7.406V5.259z"/>
			<path fill="#CCCCCC" d="M35.259,25.259h-8.888c-0.41,0-0.742,0.332-0.742,0.741v8.89c0,0.408,0.332,0.739,0.742,0.739h8.888
				c0.409,0,0.741-0.331,0.741-0.739V26C36,25.591,35.668,25.259,35.259,25.259z M34.518,34.147h-7.406V26.74h7.406V34.147z"/>
			<path fill="#CCCCCC" d="M5.629,25.259h-8.888C-3.668,25.259-4,25.591-4,26v8.89c0,0.408,0.332,0.739,0.741,0.739h8.888
				c0.41,0,0.741-0.331,0.741-0.739V26C6.371,25.591,6.039,25.259,5.629,25.259z M4.889,34.147h-7.408V26.74h7.408V34.147z"/>
		</g>
	</g>
</g>
</svg>
